<?xml version="1.0" encoding="UTF-8"?>
<svg width="22px" height="22px" viewBox="0 0 22 22" version="1.1" xmlns="http://www.w3.org/2000/svg" xmlns:xlink="http://www.w3.org/1999/xlink">
    <!-- Generator: Sketch 52.3 (67297) - http://www.bohemiancoding.com/sketch -->
    <title>Artboard</title>
    <desc>Created with Sketch.</desc>
    <g id="Artboard" stroke="none" stroke-width="1" fill="none" fill-rule="evenodd">
        <path d="M0,4 L16,4" id="Line" stroke="#979797" stroke-width="2" fill-rule="nonzero"></path>
        <path d="M8,4 L8,1" id="Line-2" stroke="#979797" stroke-width="2" fill-rule="nonzero"></path>
        <path d="M12,5 C12,7 8.66666667,11 2,17" id="Path-2" stroke="#979797" stroke-width="2" fill-rule="nonzero"></path>
        <path d="M5,7 C5,9 10,14 12,15" id="Path-3" stroke="#979797" stroke-width="2" fill-rule="nonzero"></path>
        <polyline id="Path-4" stroke="#979797" stroke-width="2" stroke-linejoin="bevel" fill-rule="nonzero" points="12 20.9374373 12 20.5612836 16.5042969 9 21 20.6141317 21 21"></polyline>
        <path d="M14,17 L19,17" id="Line-3" stroke="#979797" stroke-width="2" fill-rule="nonzero"></path>
    </g>
</svg>